2DA4/alu3/simulation/qsim/alu3.msim.vcd
$comment
	File created using the following command:
		vcd file alu3.msim.vcd -direction
$end
$date
	Tue Oct 30 21:00:23 2018
$end
$version
	ModelSim Version 10.5b
$end
$timescale
	1ps
$end

$scope module alu3_vlg_vec_tst $end
$var reg 1 ! Clock $end
$var reg 1 " Reset $end
$var reg 3 # x [2:0] $end
$var wire 1 $ leds [1] $end
$var wire 1 % leds [2] $end
$var wire 1 & leds [3] $end
$var wire 1 ' leds [4] $end
$var wire 1 ( leds [5] $end
$var wire 1 ) leds [6] $end
$var wire 1 * leds [7] $end

$scope module i1 $end
$var wire 1 + gnd $end
$var wire 1 , vcc $end
$var wire 1 - unknown $end
$var tri1 1 . devclrn $end
$var tri1 1 / devpor $end
$var tri1 1 0 devoe $end
$var wire 1 1 leds[7]~output_o $end
$var wire 1 2 leds[6]~output_o $end
$var wire 1 3 leds[5]~output_o $end
$var wire 1 4 leds[4]~output_o $end
$var wire 1 5 leds[3]~output_o $end
$var wire 1 6 leds[2]~output_o $end
$var wire 1 7 leds[1]~output_o $end
$var wire 1 8 Clock~input_o $end
$var wire 1 9 x[0]~input_o $end
$var wire 1 : Reset~input_o $end
$var wire 1 ; add|stage0|z4~combout $end
$var wire 1 < x[1]~input_o $end
$var wire 1 = add|stage1|s~combout $end
$var wire 1 > x[2]~input_o $end
$var wire 1 ? add|stage2|s~combout $end
$var wire 1 @ add|stage2|WideOr0~0_combout $end
$var wire 1 A out|WideOr6~0_combout $end
$var wire 1 B out|WideOr5~0_combout $end
$var wire 1 C out|WideOr4~0_combout $end
$var wire 1 D out|WideOr3~0_combout $end
$var wire 1 E out|WideOr2~0_combout $end
$var wire 1 F out|WideOr1~0_combout $end
$var wire 1 G out|WideOr0~0_combout $end
$var wire 1 H in1|Q [2] $end
$var wire 1 I in1|Q [1] $end
$var wire 1 J in1|Q [0] $end
$var wire 1 K in2|Q [2] $end
$var wire 1 L in2|Q [1] $end
$var wire 1 M in2|Q [0] $end
$upscope $end
$upscope $end
$enddefinitions $end
#0
$dumpvars
0!
1"
b101 #
1*
0)
0(
0'
0&
0%
0$
0+
1,
x-
1.
1/
10
11
02
03
04
05
06
07
08
19
1:
0;
0<
0=
1>
0?
0@
0A
0B
0C
0D
0E
0F
0G
0J
0I
0H
0M
0L
0K
$end
#20000
1!
18
1H
1J
1?
1;
1A
1F
1C
13
16
01
0*
1%
1(
#40000
0!
08
#60000
b1 #
b11 #
b10 #
09
1<
0>
#120000
1!
18
1K
0H
1I
1M
0J
1=
0A
0F
1D
1B
12
14
06
11
1*
0%
1'
1)
#140000
0!
08
#200000
b0 #
0<
#220000
1!
18
1L
0I
#240000
0"
0!
0:
08
0M
0L
0K
0?
0=
0;
0D
0C
0B
02
03
04
0'
0(
0)
#260000
1"
1:
