2DA4/combinationalLock/simulation/qsim/combinationalLock.msim.vcd
$comment
	File created using the following command:
		vcd file combinationalLock.msim.vcd -direction
$end
$date
	Wed Nov 14 16:43:56 2018
$end
$version
	ModelSim Version 10.5b
$end
$timescale
	1ps
$end

$scope module combinationalLock_vlg_vec_tst $end
$var reg 1 ! Change $end
$var reg 1 " Clock $end
$var reg 1 # Enter $end
$var reg 1 $ Reset $end
$var reg 4 % X [3:0] $end
$var wire 1 & leds [1] $end
$var wire 1 ' leds [2] $end
$var wire 1 ( leds [3] $end
$var wire 1 ) leds [4] $end
$var wire 1 * leds [5] $end
$var wire 1 + leds [6] $end
$var wire 1 , leds [7] $end

$scope module i1 $end
$var wire 1 - gnd $end
$var wire 1 . vcc $end
$var wire 1 / unknown $end
$var tri1 1 0 devclrn $end
$var tri1 1 1 devpor $end
$var tri1 1 2 devoe $end
$var wire 1 3 ~QUARTUS_CREATED_GND~I_combout $end
$var wire 1 4 Clock~input_o $end
$var wire 1 5 Clock~inputCLKENA0_outclk $end
$var wire 1 6 X[2]~input_o $end
$var wire 1 7 X[0]~input_o $end
$var wire 1 8 X[1]~input_o $end
$var wire 1 9 combo[2]~1_combout $end
$var wire 1 : Reset~input_o $end
$var wire 1 ; X[3]~input_o $end
$var wire 1 < Equal0~0_combout $end
$var wire 1 = Enter~input_o $end
$var wire 1 > comb_3|y.A~0_combout $end
$var wire 1 ? comb_3|y.A~q $end
$var wire 1 @ comb_3|Y.B~0_combout $end
$var wire 1 A comb_3|y.B~q $end
$var wire 1 B y~0_combout $end
$var wire 1 C Change~input_o $end
$var wire 1 D comb_4|y.A~0_combout $end
$var wire 1 E comb_4|y.A~q $end
$var wire 1 F comb_4|Y.B~0_combout $end
$var wire 1 G comb_4|y.B~q $end
$var wire 1 H y~1_combout $end
$var wire 1 I y~2_combout $end
$var wire 1 J Mux0~0_combout $end
$var wire 1 K combo[4]~0_combout $end
$var wire 1 L combo[3]~2_combout $end
$var wire 1 M Equal0~1_combout $end
$var wire 1 N Mux1~1_combout $end
$var wire 1 O Mux1~0_combout $end
$var wire 1 P hex|Decoder0~0_combout $end
$var wire 1 Q hex|leds~0_combout $end
$var wire 1 R hex|WideOr0~0_combout $end
$var wire 1 S y [3] $end
$var wire 1 T y [2] $end
$var wire 1 U y [1] $end
$var wire 1 V combo [4] $end
$var wire 1 W combo [3] $end
$var wire 1 X combo [2] $end
$var wire 1 Y combo [1] $end
$upscope $end
$upscope $end
$enddefinitions $end
#0
$dumpvars
1!
0"
1#
1$
b0 %
0,
1+
1*
1)
1(
1'
1&
0-
1.
x/
10
11
12
03
04
05
06
07
08
19
1:
0;
0<
1=
0>
0?
0@
0A
1B
1C
0D
0E
0F
0G
0H
0I
0J
0K
1L
0M
0N
0O
0P
0Q
0R
0U
0T
0S
0Y
0X
0W
0V
$end
#5000
1"
14
15
#10000
0"
04
05
#15000
1"
14
15
#20000
0"
04
05
#25000
1"
14
15
#30000
0"
04
05
#35000
1"
14
15
#40000
0#
0"
0=
04
05
1@
1>
#45000
1"
14
15
1A
1?
1N
0@
1I
1O
#50000
0"
04
05
#55000
1"
14
15
1T
1U
0A
0N
1H
0B
0I
1I
#60000
0"
04
05
#65000
1"
14
15
#70000
0"
04
05
#75000
1"
14
15
#80000
1#
0"
1=
04
05
0>
#85000
1"
14
15
0?
#90000
0"
04
05
#95000
1"
14
15
#100000
0"
04
05
#105000
1"
14
15
#110000
0"
04
05
#115000
1"
14
15
#120000
0#
0"
0=
04
05
1@
1>
#125000
1"
14
15
1A
1?
0H
0@
0O
1J
0I
#130000
0"
04
05
#135000
1"
14
15
0T
1S
0U
0A
1R
1Q
0&
0'
0+
0(
0*
#140000
0"
04
05
#145000
1"
14
15
#150000
0"
04
05
#155000
1"
14
15
#160000
1#
0"
1=
04
05
0>
#165000
1"
14
15
0?
#170000
0"
04
05
#175000
1"
14
15
#180000
0"
04
05
#185000
1"
14
15
#190000
0"
04
05
#195000
1"
14
15
#200000
b100 %
b110 %
0#
0"
18
16
0=
04
05
1M
0L
09
1@
1>
#205000
1"
14
15
1A
1?
1N
0@
#210000
0"
04
05
#215000
1"
14
15
0A
0N
#220000
0"
04
05
#225000
1"
14
15
#230000
0"
04
05
#235000
1"
14
15
#240000
1#
0"
1=
04
05
0>
#245000
1"
14
15
0?
#250000
0"
04
05
#255000
1"
14
15
#260000
0"
04
05
#265000
1"
14
15
#270000
0"
04
05
#275000
1"
14
15
#280000
0!
0"
0C
04
05
1F
1D
#285000
1"
14
15
1G
1E
0F
#290000
0"
04
05
#295000
1"
14
15
0G
#300000
0"
04
05
#305000
1"
14
15
#310000
0"
04
05
#315000
1"
14
15
#320000
1!
0"
1C
04
05
0D
#325000
1"
14
15
0E
#330000
0"
04
05
#335000
1"
14
15
#340000
0"
04
05
#345000
1"
14
15
#350000
0"
04
05
#355000
1"
14
15
#360000
0$
0"
0:
04
05
0S
0R
0Q
1B
0J
1&
1'
1+
1(
1*
#365000
1"
14
15
#370000
0"
04
05
#375000
1"
14
15
#380000
0"
04
05
#385000
1"
14
15
#390000
0"
04
05
#395000
1"
14
15
#400000
1$
0"
1:
04
05
#405000
1"
14
15
#410000
0"
04
05
#415000
1"
14
15
#420000
0"
04
05
#425000
1"
14
15
#430000
0"
04
05
#435000
1"
14
15
#440000
0#
0"
0=
04
05
1@
1>
#445000
1"
14
15
1A
1?
1N
0@
1O
#450000
0"
04
05
#455000
1"
14
15
1T
0A
0N
1R
1Q
0B
0O
1P
0)
1,
0&
0'
0+
0(
0*
1O
#460000
0"
04
05
#465000
1"
14
15
#470000
0"
04
05
#475000
1"
14
15
#480000
b10 %
b0 %
1#
0"
08
06
1=
04
05
0M
1L
19
0>
#485000
1"
14
15
0?
#490000
0"
04
05
#495000
1"
14
15
#500000
0"
04
05
#505000
1"
14
15
#510000
0"
04
05
#515000
1"
14
15
#520000
0!
0"
0C
04
05
1F
1D
#525000
1"
14
15
1G
1E
0F
#530000
0"
04
05
#535000
1"
14
15
0G
#540000
0"
04
05
#545000
1"
14
15
#550000
0"
04
05
#555000
1"
14
15
#560000
1!
0"
1C
04
05
0D
#565000
1"
14
15
0E
#570000
0"
04
05
#575000
1"
14
15
#580000
0"
04
05
#585000
1"
14
15
#590000
0"
04
05
#595000
1"
14
15
#600000
0#
0"
0=
04
05
1@
1>
#605000
1"
14
15
1A
1?
1N
0@
0O
#610000
0"
04
05
#615000
1"
14
15
0T
0A
0N
0R
0Q
1B
0P
1)
0,
1&
1'
1+
1(
1*
#620000
0"
04
05
#625000
1"
14
15
#630000
0"
04
05
#635000
1"
14
15
#640000
1#
0"
1=
04
05
0>
#645000
1"
14
15
0?
#650000
0"
04
05
#655000
1"
14
15
#660000
0"
04
05
#665000
1"
14
15
#670000
0"
04
05
#675000
1"
14
15
#680000
b100 %
b110 %
0!
0"
18
16
0C
04
05
1M
0L
09
1F
1D
#685000
1"
14
15
1G
1E
0F
1I
#690000
0"
04
05
#695000
1"
14
15
1U
0G
1H
1R
0B
0I
0(
0*
1I
#700000
0"
04
05
#705000
1"
14
15
#710000
0"
04
05
#715000
1"
14
15
#720000
b10 %
b0 %
1!
0"
08
06
1C
04
05
0M
1L
19
0D
#725000
1"
14
15
0E
#730000
0"
04
05
#735000
1"
14
15
#740000
0"
04
05
#745000
1"
14
15
#750000
0"
04
05
#755000
1"
14
15
#760000
b1000 %
0"
1;
04
05
1<
#765000
1"
14
15
#770000
0"
04
05
#775000
1"
14
15
#780000
0#
0"
0=
04
05
1@
1>
#785000
1"
14
15
1A
1?
1K
0H
0@
0I
#790000
0"
04
05
#795000
1"
14
15
1W
1X
0U
0A
1V
0<
0K
0R
1B
1M
1(
1*
#800000
b0 %
1#
0"
0;
1=
04
05
1<
0>
#805000
1"
14
15
0?
#810000
0"
04
05
#815000
1"
14
15
#820000
b100 %
b110 %
0#
0"
18
16
0=
04
05
0M
0L
09
1@
1>
#825000
1"
14
15
1A
1?
1N
0@
1I
1O
#830000
0"
04
05
#835000
1"
14
15
1T
1U
0A
0N
1H
0B
0I
1I
#840000
1#
0"
1=
04
05
0>
#845000
1"
14
15
0?
#850000
0"
04
05
#855000
1"
14
15
#860000
0#
0"
0=
04
05
1@
1>
#865000
1"
14
15
1A
1?
0H
0@
0O
1J
0I
#870000
0"
04
05
#875000
1"
14
15
0T
1S
0U
0A
1R
1Q
0&
0'
0+
0(
0*
#880000
1#
0"
1=
04
05
0>
#885000
1"
14
15
0?
#890000
0"
04
05
#895000
1"
14
15
#900000
b10 %
b0 %
0"
08
06
04
05
1M
1L
19
#905000
1"
14
15
#910000
0"
04
05
#915000
1"
14
15
#920000
0"
04
05
#925000
1"
14
15
#930000
0"
04
05
#935000
1"
14
15
#940000
0"
04
05
#945000
1"
14
15
#950000
0"
04
05
#955000
1"
14
15
#960000
0"
04
05
#965000
1"
14
15
#970000
0"
04
05
#975000
1"
14
15
#980000
0"
04
05
#985000
1"
14
15
#990000
0"
04
05
#995000
1"
14
15
