2DA4/inputConditioning/simulation/qsim/inputConditioning.msim.vcd
$comment
	File created using the following command:
		vcd file inputConditioning.msim.vcd -direction
$end
$date
	Tue Nov 20 19:12:13 2018
$end
$version
	ModelSim Version 10.5b
$end
$timescale
	1ps
$end

$scope module inputConditioning_vlg_vec_tst $end
$var reg 1 ! Clock $end
$var reg 1 " a $end
$var wire 1 # A_pulse $end

$scope module i1 $end
$var wire 1 $ gnd $end
$var wire 1 % vcc $end
$var wire 1 & unknown $end
$var tri1 1 ' devclrn $end
$var tri1 1 ( devpor $end
$var tri1 1 ) devoe $end
$var wire 1 * ~QUARTUS_CREATED_GND~I_combout $end
$var wire 1 + Clock~input_o $end
$var wire 1 , Clock~inputCLKENA0_outclk $end
$var wire 1 - a~input_o $end
$var wire 1 . y.A~0_combout $end
$var wire 1 / y.A~q $end
$var wire 1 0 Y.B~0_combout $end
$var wire 1 1 y.B~q $end
$upscope $end
$upscope $end
$enddefinitions $end
#0
$dumpvars
0!
1"
0#
0$
1%
x&
1'
1(
1)
0*
0+
0,
1-
0.
0/
00
01
$end
#5000
1!
1+
1,
#10000
0!
0+
0,
#15000
1!
1+
1,
#20000
0!
0+
0,
#25000
1!
1+
1,
#30000
0!
0+
0,
#35000
1!
1+
1,
#40000
0!
0+
0,
#45000
1!
1+
1,
#50000
0"
0!
0-
0+
0,
10
1.
#55000
1!
1+
1,
1/
11
1#
00
#60000
0!
0+
0,
#65000
1!
1+
1,
01
0#
#70000
0!
0+
0,
#75000
1!
1+
1,
#80000
0!
0+
0,
#85000
1!
1+
1,
#90000
0!
0+
0,
#95000
1!
1+
1,
#100000
1"
0!
1-
0+
0,
0.
#105000
1!
1+
1,
0/
#110000
0!
0+
0,
#115000
1!
1+
1,
#120000
0!
0+
0,
#125000
1!
1+
1,
#130000
0!
0+
0,
#135000
1!
1+
1,
#140000
0!
0+
0,
#145000
1!
1+
1,
#150000
0"
0!
0-
0+
0,
10
1.
#155000
1!
1+
1,
1/
11
1#
00
#160000
0!
0+
0,
#165000
1!
1+
1,
01
0#
#170000
0!
0+
0,
#175000
1!
1+
1,
#180000
0!
0+
0,
#185000
1!
1+
1,
#190000
0!
0+
0,
#195000
1!
1+
1,
#200000
1"
0!
1-
0+
0,
0.
#205000
1!
1+
1,
0/
#210000
0!
0+
0,
#215000
1!
1+
1,
#220000
0!
0+
0,
#225000
1!
1+
1,
#230000
0!
0+
0,
#235000
1!
1+
1,
#240000
0!
0+
0,
#245000
1!
1+
1,
#250000
0"
0!
0-
0+
0,
10
1.
#255000
1!
1+
1,
1/
11
1#
00
#260000
0!
0+
0,
#265000
1!
1+
1,
01
0#
#270000
0!
0+
0,
#275000
1!
1+
1,
#280000
0!
0+
0,
#285000
1!
1+
1,
#290000
0!
0+
0,
#295000
1!
1+
1,
#300000
1"
0!
1-
0+
0,
0.
#305000
1!
1+
1,
0/
#310000
0!
0+
0,
#315000
1!
1+
1,
#320000
0!
0+
0,
#325000
1!
1+
1,
#330000
0!
0+
0,
#335000
1!
1+
1,
#340000
0!
0+
0,
#345000
1!
1+
1,
#350000
0"
0!
0-
0+
0,
10
1.
#355000
1!
1+
1,
1/
11
1#
00
#360000
0!
0+
0,
#365000
1!
1+
1,
01
0#
#370000
0!
0+
0,
#375000
1!
1+
1,
#380000
0!
0+
0,
#385000
1!
1+
1,
#390000
0!
0+
0,
#395000
1!
1+
1,
#400000
1"
0!
1-
0+
0,
0.
#405000
1!
1+
1,
0/
#410000
0!
0+
0,
#415000
1!
1+
1,
#420000
0!
0+
0,
#425000
1!
1+
1,
#430000
0!
0+
0,
#435000
1!
1+
1,
#440000
0!
0+
0,
#445000
1!
1+
1,
#450000
0"
0!
0-
0+
0,
10
1.
#455000
1!
1+
1,
1/
11
1#
00
#460000
0!
0+
0,
#465000
1!
1+
1,
01
0#
#470000
0!
0+
0,
#475000
1!
1+
1,
#480000
0!
0+
0,
#485000
1!
1+
1,
#490000
1"
0!
1-
0+
0,
0.
#495000
1!
1+
1,
0/
