2DA4/lab2demo/simulation/qsim/lab2demo.msim.vcd
$comment
	File created using the following command:
		vcd file lab2demo.msim.vcd -direction
$end
$date
	Tue Oct 16 19:49:21 2018
$end
$version
	ModelSim Version 10.5b
$end
$timescale
	1ps
$end

$scope module lab2demo_vlg_vec_tst $end
$var reg 1 ! x0 $end
$var reg 1 " x1 $end
$var reg 1 # x2 $end
$var reg 1 $ x3 $end
$var reg 1 % y0 $end
$var reg 1 & y1 $end
$var reg 1 ' y2 $end
$var reg 1 ( y3 $end
$var wire 1 ) a1 $end
$var wire 1 * a2 $end
$var wire 1 + b1 $end
$var wire 1 , b2 $end
$var wire 1 - c1 $end
$var wire 1 . c2 $end
$var wire 1 / d1 $end
$var wire 1 0 d2 $end
$var wire 1 1 e1 $end
$var wire 1 2 e2 $end
$var wire 1 3 f1 $end
$var wire 1 4 f2 $end
$var wire 1 5 g1 $end
$var wire 1 6 g2 $end

$scope module i1 $end
$var wire 1 7 gnd $end
$var wire 1 8 vcc $end
$var wire 1 9 unknown $end
$var tri1 1 : devclrn $end
$var tri1 1 ; devpor $end
$var tri1 1 < devoe $end
$var wire 1 = a1~output_o $end
$var wire 1 > a2~output_o $end
$var wire 1 ? b1~output_o $end
$var wire 1 @ b2~output_o $end
$var wire 1 A c1~output_o $end
$var wire 1 B c2~output_o $end
$var wire 1 C d1~output_o $end
$var wire 1 D d2~output_o $end
$var wire 1 E e1~output_o $end
$var wire 1 F e2~output_o $end
$var wire 1 G f1~output_o $end
$var wire 1 H f2~output_o $end
$var wire 1 I g1~output_o $end
$var wire 1 J g2~output_o $end
$var wire 1 K x1~input_o $end
$var wire 1 L x3~input_o $end
$var wire 1 M x2~input_o $end
$var wire 1 N x0~input_o $end
$var wire 1 O hex1|a~0_combout $end
$var wire 1 P y2~input_o $end
$var wire 1 Q y1~input_o $end
$var wire 1 R y0~input_o $end
$var wire 1 S hex2|a~0_combout $end
$var wire 1 T hex1|b~0_combout $end
$var wire 1 U y3~input_o $end
$var wire 1 V hex2|b~0_combout $end
$var wire 1 W hex1|c~0_combout $end
$var wire 1 X hex2|c~0_combout $end
$var wire 1 Y hex1|d~0_combout $end
$var wire 1 Z hex2|d~0_combout $end
$var wire 1 [ hex1|e~0_combout $end
$var wire 1 \ hex2|e~0_combout $end
$var wire 1 ] hex1|f~0_combout $end
$var wire 1 ^ hex2|f~combout $end
$var wire 1 _ hex1|g~0_combout $end
$var wire 1 ` hex2|g~0_combout $end
$upscope $end
$upscope $end
$enddefinitions $end
#0
$dumpvars
0!
0"
0#
0$
0%
0&
0'
0(
0)
1*
0+
1,
0-
0.
0/
00
01
02
03
04
15
06
07
18
x9
1:
1;
1<
0=
1>
0?
1@
0A
0B
0C
0D
0E
0F
0G
0H
1I
0J
0K
0L
0M
0N
0O
0P
0Q
0R
0S
0T
0U
1V
0W
0X
0Y
0Z
0[
0\
0]
0^
1_
0`
$end
#62500
1!
1%
1N
1R
1S
1Z
0V
1Y
1W
1T
1O
1=
1?
1A
1C
0@
1D
0>
0*
10
0,
1/
1-
1+
1)
#125000
1"
1&
0!
0%
1K
1Q
0N
0R
0S
1^
1X
1V
0_
1]
0Y
0T
0O
0=
0?
0C
1G
0I
1@
1B
1H
1>
1*
14
1.
1,
05
13
0/
0+
0)
#187500
1!
1%
1N
1R
1S
0^
0Z
1[
0W
0A
1E
0D
0H
0>
0*
04
00
11
0-
#250000
1#
1'
0"
0&
0!
0%
1M
1P
0K
0Q
0N
0R
0S
1`
1^
1\
1Z
0X
0]
1Y
1O
1=
1C
0G
0B
1D
1F
1H
1J
1>
1*
16
14
12
10
0.
03
1/
1)
#312500
1!
1%
1N
1R
0`
0\
0Z
0Y
1T
0O
0=
1?
0C
0D
0F
0J
06
02
00
0/
1+
0)
#375000
1"
1&
0!
0%
1K
1Q
0N
0R
1S
0^
1\
0[
0E
1F
0H
0>
0*
04
12
01
#437500
1!
1%
1N
1R
1`
0\
1X
1_
1]
1[
1Y
0T
0?
1C
1E
1G
1I
1B
0F
1J
16
02
1.
15
13
11
1/
0+
#500000
1$
1(
0#
0'
0"
0&
0!
0%
1L
1U
0M
0P
0K
0Q
0N
0R
0S
0`
1Z
0X
0V
0_
0]
0[
0Y
0C
0E
0G
0I
0@
0B
1D
0J
1>
1*
06
10
0.
0,
05
03
01
0/
#562500
1!
1%
1N
1R
1S
1[
1Y
1C
1E
0>
0*
11
1/
#625000
1"
1&
0!
0%
1K
1Q
0N
0R
0S
1^
1X
0[
0E
1B
1H
1>
1*
14
1.
01
#687500
1!
1%
1N
1R
1S
0^
0Z
0Y
1T
1O
1=
1?
0C
0D
0H
0>
0*
04
00
0/
1+
1)
#750000
1#
1'
0"
0&
0!
0%
1M
1P
0K
0Q
0N
0R
0S
1`
1Z
0X
1_
1W
0O
0=
1A
1I
0B
1D
1J
1>
1*
16
10
0.
15
1-
0)
#812500
1!
1%
1N
1R
0`
0Z
0_
1]
0W
0T
1O
1=
0?
0A
1G
0I
0D
0J
06
00
05
13
0-
0+
1)
#875000
1"
1&
0!
0%
1K
1Q
0N
0R
1S
0]
1W
1T
0O
0=
1?
1A
0G
0>
0*
03
1-
1+
0)
#937500
1!
1%
1N
1R
1`
1X
1Y
1C
1B
1J
16
1.
1/
